Converting from XPT • datasetjson
…
  out$itemOID <- n
  out$name <- n
  out$label <- attr(.data[[n]], 'label')
  out$displayFormat <- attr(.data[[n]], 'format.sas')
  tibble::as_tibble(out)
  
}

# Loop the ADSL columns
adsl_meta <- purrr::map_df(names(adsl), extract_xpt_meta, .data=adsl)
adsl_meta
#> # A tibble: 49 × 7
#>    dataType length itemOID name    label            targetDataType displayFormat
#>    <chr>     <int> <chr>   <chr>   <chr>            <chr>          <chr>        
#>  1 string       12 STUDYID STUDYID Study Identifier NA             NA           
#>  2 string       11 USUBJID USUBJID Unique Subject … NA             NA           
#>  3 string        4 SUBJID  SUBJID  Subject Identif… NA             NA           
#>  4 string        3 SITEID  SITEID  Study Site Iden… NA             NA           
#>  5 string        3 SITEGR1 SITEGR1 Pooled Site Gro… NA             NA           
#>  6 string       20 ARM     ARM     Description of … NA             NA           
#>  7 string       20 TRT01P  TRT01P  Planned Treatme… NA             NA           
#>  8 float        NA TRT01PN TRT01PN Planned Treatme… NA             NA           
#>  9 string       20 TRT01A  TRT01A  Actual Treatmen… NA             NA           
#> 10 float        NA TRT01AN TRT01AN Actual Treatmen… NA             NA           
#> # ℹ 39 more rows
…
